…
Primarily, the tool can be used to access data from various sources. Data is included in the package and can be access directly however this will not be up to date. Each source of data has functions for updating data during the season.

### AFL Tables match results

You can access the basic afl tables match results data. This includes all matches from 1897-current. It is generally updated on the day after a round finishes.

You can access the data directly from the package using `match_results`. This will be updated periodically but you will need to update your R package to get access to the latest data. It is better to use `get_match_results` directly, as this will give you up to date results.

``` r
library(fitzRoy)
results <- get_match_results()
#> Warning: package 'bindrcpp' was built under R version 3.4.4

tail(results)
#> # A tibble: 6 x 16
#>     Game Date       Round Home.Team    Home.Goals Home.Behinds Home.Points
#>    <dbl> <date>     <chr> <chr>             <int>        <int>       <int>
#> 1 15306. 2018-06-14 R13   Port Adelai…         20           12         132
#> 2 15307. 2018-06-15 R13   Sydney               10           12          72
#> 3 15308. 2018-06-16 R13   Carlton               6           10          46
#> 4 15309. 2018-06-16 R13   Gold Coast           11           12          78
#> 5 15310. 2018-06-16 R13   Hawthorn             12           16          88
#> # ... with 1 more row, and 9 more variables: Away.Team <chr>,
#> #   Away.Goals <int>, Away.Behinds <int>, Away.Points <int>, Venue <chr>,
#> #   Margin <int>, Season <dbl>, Round.Type <chr>, Round.Number <int>
```

You can also convert this format into a more analysis friendly "long" format using the helper function `convert_results`.

``` r
results_long <- convert_results(results)

head(results_long)
#> # A tibble: 6 x 13
#>    Game Date       Round Venue       Margin Season Round.Type Round.Number
#>   <dbl> <date>     <chr> <chr>        <dbl>  <dbl> <chr>             <int>
#> 1    1. 1897-05-08 R1    Brunswick …    33.  1897. Regular               1
#> 2    1. 1897-05-08 R1    Brunswick …   -33.  1897. Regular               1
#> 3    2. 1897-05-08 R1    Victoria P…    25.  1897. Regular               1
#> 4    2. 1897-05-08 R1    Victoria P…   -25.  1897. Regular               1
#> 5    3. 1897-05-08 R1    Corio Oval    -23.  1897. Regular               1
#> # ... with 1 more row, and 5 more variables: Status <chr>, Behinds <chr>,
#> #   Goals <chr>, Points <chr>, Team <chr>
```

### Fixture

You can access the fixture using `get_fixture` function. This will download the fixture for the current calendar year by default.

``` r
fixture <- get_fixture()

head(fixture)
#> # A tibble: 6 x 7
#>   Date                Season Season.Game Round Home.Team  Away.Team Venue 
#>   <dttm>               <int>       <int> <int> <chr>      <chr>     <chr> 
#> 1 2018-03-22 19:25:00   2018           1     1 Richmond   Carlton   MCG   
#> 2 2018-03-23 19:50:00   2018           2     1 Essendon   Adelaide  Etiha…
#> 3 2018-03-24 15:35:00   2018           3     1 St Kilda   Brisbane… Etiha…
#> 4 2018-03-24 16:05:00   2018           4     1 Port Adel… Fremantle Adela…
#> 5 2018-03-24 18:25:00   2018           5     1 Gold Coast North Me… Cazal…
#> # ... with 1 more row
```
…
