Recreate the ladder for every or any given round and/or season — return_ladder • fitzRoy
…
    Value

    Returns a data frame containing a line for each team's ladder position at each round of a season

    Details

    The dataframe contains information about the Round, Season, Points For/Against, Ladder Position. It can either take in a data frame created using get_match_results, or if match_results_df is unspecified, will extract all games using get_match_results.
Will only allow selecting rounds of the premiership season, not finals.

    Examples

# \donttest{
return_ladder()
#> # A tibble: 30,358 x 8
#>    Season Team  Round.Number Season.Points Score.For Score.Against Percentage
#>     <dbl> <chr>        <int>         <dbl>     <dbl>         <dbl>      <dbl>
#>  1   1897 Fitz…            1             4        49            16      3.06 
#>  2   1897 Coll…            1             4        41            16      2.56 
#>  3   1897 Esse…            1             4        47            24      1.96 
#>  4   1897 Melb…            1             4        44            27      1.63 
#>  5   1897 Sydn…            1             0        27            44      0.614
#>  6   1897 Geel…            1             0        24            47      0.511
#>  7   1897 St K…            1             0        16            41      0.390
#>  8   1897 Carl…            1             0        16            49      0.327
#>  9   1897 Fitz…            2             8       115            42      2.74 
#> 10   1897 Melb…            2             8       108            46      2.35 
#> # … with 30,348 more rows, and 1 more variable: Ladder.Position <int>
…
