Return afltables match stats — get_afltables_stats • fitzRoy
…
# Gets all data
get_afltables_stats()
#> Returning data from 1897-01-01 to 2018-11-07
#> Downloading data
#> 
#> Finished downloading data. Processing XMLs
#> Warning: number of columns of result is not a multiple of vector length (arg 1)
#> Warning: 396 parsing failures.
#> row # A tibble: 5 x 5 col     row col   expected   actual file                                             expected   <int> <chr> <chr>      <chr>  <chr>                                            actual 1  8713 Round an integer QF     'https://afltables.com/afl/stats/2018_stats.txt' file 2  8714 Round an integer QF     'https://afltables.com/afl/stats/2018_stats.txt' row 3  8715 Round an integer QF     'https://afltables.com/afl/stats/2018_stats.txt' col 4  8716 Round an integer QF     'https://afltables.com/afl/stats/2018_stats.txt' expected 5  8717 Round an integer QF     'https://afltables.com/afl/stats/2018_stats.txt'
#> ... ................. ... ................................................................................ ........ ................................................................................ ...... ................................................................................ .... ................................................................................ ... ................................................................................ ... ................................................................................ ........ ................................................................................
#> See problems(...) for more details.
#> Warning: Unknown columns: `Substitute`
#> Finished getting afltables data
#> # A tibble: 620,388 x 59
#>    Season Round Date       Local.start.time Venue Attendance Home.team  HQ1G
#>     <dbl> <chr> <date>                <int> <chr>      <int> <chr>     <int>
#>  1   1897 1     1897-05-08             1500 Brun…       3000 Fitzroy       0
#>  2   1897 1     1897-05-08             1500 Brun…       3000 Fitzroy       0
#>  3   1897 1     1897-05-08             1500 Brun…       3000 Fitzroy       0
#>  4   1897 1     1897-05-08             1500 Brun…       3000 Fitzroy       0
#>  5   1897 1     1897-05-08             1500 Brun…       3000 Fitzroy       0
#>  6   1897 1     1897-05-08             1500 Brun…       3000 Fitzroy       0
#>  7   1897 1     1897-05-08             1500 Brun…       3000 Fitzroy       0
#>  8   1897 1     1897-05-08             1500 Brun…       3000 Fitzroy       0
#>  9   1897 1     1897-05-08             1500 Brun…       3000 Fitzroy       0
#> 10   1897 1     1897-05-08             1500 Brun…       3000 Fitzroy       0
#> # ... with 620,378 more rows, and 51 more variables: HQ1B <int>, HQ2G <int>,
#> #   HQ2B <int>, HQ3G <int>, HQ3B <int>, HQ4G <int>, HQ4B <int>,
#> #   Home.score <int>, Away.team <chr>, AQ1G <int>, AQ1B <int>, AQ2G <int>,
#> #   AQ2B <int>, AQ3G <int>, AQ3B <int>, AQ4G <int>, AQ4B <int>,
#> #   Away.score <int>, First.name <chr>, Surname <chr>, ID <int>,
#> #   Jumper.No. <dbl>, Playing.for <chr>, Kicks <dbl>, Marks <dbl>,
#> #   Handballs <dbl>, Goals <dbl>, Behinds <dbl>, Hit.Outs <dbl>, Tackles <dbl>,
#> #   Rebounds <dbl>, Inside.50s <dbl>, Clearances <dbl>, Clangers <dbl>,
#> #   Frees.For <dbl>, Frees.Against <dbl>, Brownlow.Votes <dbl>,
#> #   Contested.Possessions <dbl>, Uncontested.Possessions <dbl>,
#> #   Contested.Marks <dbl>, Marks.Inside.50 <dbl>, One.Percenters <dbl>,
#> #   Bounces <dbl>, Goal.Assists <dbl>, Time.on.Ground.. <int>,
#> #   Substitute <int>, Umpire.1 <chr>, Umpire.2 <chr>, Umpire.3 <chr>,
#> #   Umpire.4 <chr>, group_id <int>

# Specify a date range
get_afltables_stats("01/01/2018", end_date = "01/04/2018")
#> Returning data from 2018-01-01 to 2018-04-01
#> Finished getting afltables data
#> # A tibble: 660 x 59
#>    Season Round Date       Local.start.time Venue Attendance Home.team  HQ1G
#>     <dbl> <chr> <date>                <int> <chr>      <int> <chr>     <int>
#>  1   2018 1     2018-03-22             1925 "M.C…      90151 Richmond      4
#>  2   2018 1     2018-03-22             1925 "M.C…      90151 Richmond      4
#>  3   2018 1     2018-03-22             1925 "M.C…      90151 Richmond      4
#>  4   2018 1     2018-03-22             1925 "M.C…      90151 Richmond      4
#>  5   2018 1     2018-03-22             1925 "M.C…      90151 Richmond      4
#>  6   2018 1     2018-03-22             1925 "M.C…      90151 Richmond      4
#>  7   2018 1     2018-03-22             1925 "M.C…      90151 Richmond      4
#>  8   2018 1     2018-03-22             1925 "M.C…      90151 Richmond      4
#>  9   2018 1     2018-03-22             1925 "M.C…      90151 Richmond      4
#> 10   2018 1     2018-03-22             1925 "M.C…      90151 Richmond      4
#> # ... with 650 more rows, and 51 more variables: HQ1B <int>, HQ2G <int>,
#> #   HQ2B <int>, HQ3G <int>, HQ3B <int>, HQ4G <int>, HQ4B <int>,
#> #   Home.score <int>, Away.team <chr>, AQ1G <int>, AQ1B <int>, AQ2G <int>,
#> #   AQ2B <int>, AQ3G <int>, AQ3B <int>, AQ4G <int>, AQ4B <int>,
#> #   Away.score <int>, First.name <chr>, Surname <chr>, ID <int>,
#> #   Jumper.No. <dbl>, Playing.for <chr>, Kicks <dbl>, Marks <dbl>,
#> #   Handballs <dbl>, Goals <dbl>, Behinds <dbl>, Hit.Outs <dbl>, Tackles <dbl>,
#> #   Rebounds <dbl>, Inside.50s <dbl>, Clearances <dbl>, Clangers <dbl>,
#> #   Frees.For <dbl>, Frees.Against <dbl>, Brownlow.Votes <dbl>,
…
