…
Fixture data is available from multiple places. The most reliable and
complete data usually comes from the AFL website. From that website you
can specify either the Mens or Womens competitions using the `comp`
argument.

``` r
fixture <- fetch_fixture(2021, comp = "AFLW")
fixture %>%
  select(
    utcStartTime, round.name,
    home.team.name, away.team.name, venue.name
  )
```

    #> # A tibble: 68 × 5
    #>    utcStartTime              round.name home.team.name away.team.name venue.name
    #>    <chr>                     <chr>      <chr>          <chr>          <chr>     
    #>  1 2021-01-28T08:15:00.000+… Round 1    Carlton        Collingwood    Ikon Park 
    #>  2 2021-01-29T08:10:00.000+… Round 1    St Kilda       Western Bulld… RSEA Park 
    #>  3 2021-01-30T04:10:00.000+… Round 1    Gold Coast Su… Melbourne      Metricon …
    #>  4 2021-01-30T06:10:00.000+… Round 1    West Coast Ea… Adelaide Crows Mineral R…
    #>  5 2021-01-31T01:10:00.000+… Round 1    Geelong Cats   Kangaroos      GMHBA Sta…
    #>  6 2021-01-31T03:10:00.000+… Round 1    Richmond       Brisbane Lions Swinburne…
    #>  7 2021-01-31T05:10:00.000+… Round 1    Fremantle      GWS Giants     Fremantle…
    #>  8 2021-02-05T08:45:00.000+… Round 2    Western Bulld… Carlton        Victoria …
    #>  9 2021-02-06T04:10:00.000+… Round 2    Collingwood    Geelong Cats   Victoria …
    #> 10 2021-02-06T06:10:00.000+… Round 2    Melbourne      Richmond       Casey Fie…
    #> # ℹ 58 more rows
…
The only data source with lineup data is the AFL.com.au website.

``` r
fetch_lineup(2021, round_number = 1, comp = "AFLW") %>%
  select(
    round.name, status, teamName,
    player.playerName.givenName,
    player.playerName.surname, teamStatus
  )
```

    #> # A tibble: 294 × 6
    #>    round.name status    teamName player.playerName.give…¹ player.playerName.su…²
    #>    <chr>      <chr>     <chr>    <chr>                    <chr>                 
    #>  1 Round 1    CONCLUDED Carlton  Brooke                   Vernon                
    #>  2 Round 1    CONCLUDED Carlton  Natalie                  Plane                 
    #>  3 Round 1    CONCLUDED Carlton  Vaomua                   Laloifi               
    #>  4 Round 1    CONCLUDED Carlton  Charlotte                Wilson                
    #>  5 Round 1    CONCLUDED Carlton  Kerryn                   Harrington            
    #>  6 Round 1    CONCLUDED Carlton  Lauren                   Brazzale              
    #>  7 Round 1    CONCLUDED Carlton  Elise                    O'Dea                 
    #>  8 Round 1    CONCLUDED Carlton  Katie                    Loynes                
    #>  9 Round 1    CONCLUDED Carlton  Abbie                    McKay                 
    #> 10 Round 1    CONCLUDED Carlton  Tayla                    Harris                
    #> # ℹ 284 more rows
    #> # ℹ abbreviated names: ¹​player.playerName.givenName, ²​player.playerName.surname
    #> # ℹ 1 more variable: teamStatus <chr>

### Results

You can access AFL match results data from various sources. The most
complete is the [AFL Tables](https://afltables.com/afl/afl_index.html)
data, which includes all matches from 1897-current.

``` r
results <- fetch_match_results_afltables(1897:2019)
results
```

    #> # A tibble: 15,614 × 16
    #>     Game Date       Round Home.Team   Home.Goals Home.Behinds Home.Points
    #>    <dbl> <date>     <chr> <chr>            <int>        <int>       <int>
    #>  1     1 1897-05-08 R1    Fitzroy              6           13          49
    #>  2     2 1897-05-08 R1    Collingwood          5           11          41
    #>  3     3 1897-05-08 R1    Geelong              3            6          24
    #>  4     4 1897-05-08 R1    Sydney               3            9          27
    #>  5     5 1897-05-15 R2    Sydney               6            4          40
    #>  6     6 1897-05-15 R2    Essendon             4            6          30
    #>  7     7 1897-05-15 R2    St Kilda             3            8          26
    #>  8     8 1897-05-15 R2    Melbourne            9           10          64
    #>  9     9 1897-05-22 R3    Collingwood          6            5          41
    #> 10    10 1897-05-22 R3    Fitzroy              5            9          39
    #> # ℹ 15,604 more rows
    #> # ℹ 9 more variables: Away.Team <chr>, Away.Goals <int>, Away.Behinds <int>,
    #> #   Away.Points <int>, Venue <chr>, Margin <int>, Season <dbl>,
    #> #   Round.Type <chr>, Round.Number <int>

While it is possible to return all historical data, it is usually good
practice to only return a small amount of data - such as a single season
or round - and keep your own offline database of historical data.

``` r
results_new <- fetch_results_afltables(2021)
bind_rows(results, results_new)
```

    #> # A tibble: 15,983 × 16
    #>     Game Date       Round Home.Team   Home.Goals Home.Behinds Home.Points
    #>    <dbl> <date>     <chr> <chr>            <int>        <int>       <int>
    #>  1     1 1897-05-08 R1    Fitzroy              6           13          49
    #>  2     2 1897-05-08 R1    Collingwood          5           11          41
    #>  3     3 1897-05-08 R1    Geelong              3            6          24
    #>  4     4 1897-05-08 R1    Sydney               3            9          27
    #>  5     5 1897-05-15 R2    Sydney               6            4          40
    #>  6     6 1897-05-15 R2    Essendon             4            6          30
    #>  7     7 1897-05-15 R2    St Kilda             3            8          26
    #>  8     8 1897-05-15 R2    Melbourne            9           10          64
    #>  9     9 1897-05-22 R3    Collingwood          6            5          41
    #> 10    10 1897-05-22 R3    Fitzroy              5            9          39
    #> # ℹ 15,973 more rows
    #> # ℹ 9 more variables: Away.Team <chr>, Away.Goals <int>, Away.Behinds <int>,
    #> #   Away.Points <int>, Venue <chr>, Margin <int>, Season <dbl>,
    #> #   Round.Type <chr>, Round.Number <int>
…
You can get AFLW results by using the `comp` argument.

``` r
fetch_results(2020, comp = "AFLW") %>%
  select(
    match.name, venue.name, round.name,
    homeTeamScore.matchScore.totalScore,
    awayTeamScore.matchScore.totalScore
  )
```

    #> # A tibble: 46 × 5
    #>    match.name                       venue.name round.name homeTeamScore.matchS…¹
    #>    <chr>                            <chr>      <chr>                       <int>
    #>  1 Richmond Vs Carlton              Ikon Park  Round 1                        14
    #>  2 GWS Giants Vs Gold Coast Suns    Blacktown… Round 1                         9
    #>  3 Melbourne Vs Kangaroos           Casey Fie… Round 1                        22
    #>  4 Brisbane Lions Vs Adelaide Crows Hickey Pa… Round 1                        34
    #>  5 Collingwood Vs West Coast Eagles Victoria … Round 1                        38
    #>  6 St Kilda Vs Western Bulldogs     RSEA Park  Round 1                        14
    #>  7 Fremantle Vs Geelong Cats        Fremantle… Round 1                        44
    #>  8 Western Bulldogs Vs Melbourne    Victoria … Round 2                        12
    #>  9 Kangaroos Vs GWS Giants          Universit… Round 2                        37
    #> 10 Gold Coast Suns Vs Richmond      Metricon … Round 2                        33
    #> # ℹ 36 more rows
    #> # ℹ abbreviated name: ¹​homeTeamScore.matchScore.totalScore
    #> # ℹ 1 more variable: awayTeamScore.matchScore.totalScore <int>
…
### Stats

We can return player statistics for a set of matches. The exact stats
that are included varies quite a bit between data sources.

The default is again the AFL.com.au which is fairly comprehensive.

``` r
fetch_player_stats(2020, comp = "AFLW")
```

    #> # A tibble: 1,932 × 68
    #>    providerId      utcStartTime           status compSeason.shortName round.name
    #>    <chr>           <chr>                  <chr>  <chr>                <chr>     
    #>  1 CD_M20202640101 2020-02-07T08:45:00.0… CONCL… 2020 AFL Womens      Round 1   
    #>  2 CD_M20202640101 2020-02-07T08:45:00.0… CONCL… 2020 AFL Womens      Round 1   
    #>  3 CD_M20202640101 2020-02-07T08:45:00.0… CONCL… 2020 AFL Womens      Round 1   
    #>  4 CD_M20202640101 2020-02-07T08:45:00.0… CONCL… 2020 AFL Womens      Round 1   
    #>  5 CD_M20202640101 2020-02-07T08:45:00.0… CONCL… 2020 AFL Womens      Round 1   
    #>  6 CD_M20202640101 2020-02-07T08:45:00.0… CONCL… 2020 AFL Womens      Round 1   
    #>  7 CD_M20202640101 2020-02-07T08:45:00.0… CONCL… 2020 AFL Womens      Round 1   
    #>  8 CD_M20202640101 2020-02-07T08:45:00.0… CONCL… 2020 AFL Womens      Round 1   
    #>  9 CD_M20202640101 2020-02-07T08:45:00.0… CONCL… 2020 AFL Womens      Round 1   
    #> 10 CD_M20202640101 2020-02-07T08:45:00.0… CONCL… 2020 AFL Womens      Round 1   
    #> # ℹ 1,922 more rows
    #> # ℹ 63 more variables: round.roundNumber <int>, venue.name <chr>,
    #> #   home.team.club.name <chr>, away.team.club.name <chr>,
    #> #   player.jumperNumber <int>, player.photoURL <chr>,
    #> #   player.player.position <chr>, player.player.player.playerId <chr>,
    #> #   player.player.player.captain <lgl>,
    #> #   player.player.player.playerJumperNumber <int>, …

We also have detailed player stats courtesy of Fryzigg.

``` r
fetch_player_stats(2019, source = "fryzigg")
```

    #> # A tibble: 9,108 × 81
    #>    venue_name match_id match_home_team match_away_team match_date
    #>    <chr>         <int> <chr>           <chr>           <chr>     
    #>  1 MCG           15408 Carlton         Richmond        2019-03-21
    #>  2 MCG           15408 Carlton         Richmond        2019-03-21
    #>  3 MCG           15408 Carlton         Richmond        2019-03-21
    #>  4 MCG           15408 Carlton         Richmond        2019-03-21
    #>  5 MCG           15408 Carlton         Richmond        2019-03-21
    #>  6 MCG           15408 Carlton         Richmond        2019-03-21
    #>  7 MCG           15408 Carlton         Richmond        2019-03-21
    #>  8 MCG           15408 Carlton         Richmond        2019-03-21
    #>  9 MCG           15408 Carlton         Richmond        2019-03-21
    #> 10 MCG           15408 Carlton         Richmond        2019-03-21
    #> # ℹ 9,098 more rows
    #> # ℹ 76 more variables: match_local_time <chr>, match_attendance <int>,
    #> #   match_round <chr>, match_home_team_goals <int>,
    #> #   match_home_team_behinds <int>, match_home_team_score <int>,
    #> #   match_away_team_goals <int>, match_away_team_behinds <int>,
    #> #   match_away_team_score <int>, match_margin <int>, match_winner <chr>,
    #> #   match_weather_temp_c <int>, match_weather_type <chr>, player_id <int>, …
…
