Introduction to fitzRoy • fitzRoy
…
It is also a good idea to avoid regularly fetching whole datasets. Where possible, try to keep an off-line version of your data and only request the smallest amount possible to get the new data you require. This is both faster (less data transferred over your Internet connection and less data living in your computer memory) but also helps to reduce traffic on the data providers servers.

Examples

Fixture

Fixture data is available from multiple places. The most reliable and complete data usually comes from the AFL website. From that website you can specify either the Mens or Womens competitions using the comp argument.

fixture <- fetch_fixture(2021, comp = "AFLW")
fixture %>%
  select(utcStartTime, round.name, 
         home.team.name, away.team.name, venue.name)

#> # A tibble: 68 × 5
#>    utcStartTime      round.name home.team.name  away.team.name  venue.name      
#>    <chr>             <chr>      <chr>           <chr>           <chr>           
#>  1 2021-01-28T08:15… Round 1    Carlton         Collingwood     Ikon Park       
#>  2 2021-01-29T08:10… Round 1    St Kilda        Western Bulldo… RSEA Park       
#>  3 2021-01-30T04:10… Round 1    Gold Coast Suns Melbourne       Metricon Stadium
#>  4 2021-01-30T06:10… Round 1    West Coast Eag… Adelaide Crows  Mineral Resourc…
#>  5 2021-01-31T01:10… Round 1    Geelong Cats    Kangaroos       GMHBA Stadium   
#>  6 2021-01-31T03:10… Round 1    Richmond        Brisbane Lions  Swinburne Centre
#>  7 2021-01-31T05:10… Round 1    Fremantle       GWS Giants      Fremantle Oval  
#>  8 2021-02-05T08:45… Round 2    Western Bulldo… Carlton         Victoria Univer…
#>  9 2021-02-06T04:10… Round 2    Collingwood     Geelong Cats    Victoria Park   
#> 10 2021-02-06T06:10… Round 2    Melbourne       Richmond        Casey Fields    
#> # … with 58 more rows
…
Lineup

You can get the lineup for a particular round. This is usually useful when running after the teams have been announced but before the match has been played.

The only data source with lineup data is the AFL.com.au website.

fetch_lineup(2021, round_number = 1, comp = "AFLW") %>%
  select(round.name, status, teamName, 
         player.playerName.givenName,
         player.playerName.surname, teamStatus)

#> # A tibble: 294 × 6
#>    round.name status    teamName player.playerName… player.playerNam… teamStatus
#>    <chr>      <chr>     <chr>    <chr>              <chr>             <chr>     
#>  1 Round 1    CONCLUDED Carlton  Brooke             Vernon            FINAL_TEAM
#>  2 Round 1    CONCLUDED Carlton  Natalie            Plane             FINAL_TEAM
#>  3 Round 1    CONCLUDED Carlton  Vaomua             Laloifi           FINAL_TEAM
#>  4 Round 1    CONCLUDED Carlton  Charlotte          Wilson            FINAL_TEAM
#>  5 Round 1    CONCLUDED Carlton  Kerryn             Harrington        FINAL_TEAM
#>  6 Round 1    CONCLUDED Carlton  Lauren             Brazzale          FINAL_TEAM
#>  7 Round 1    CONCLUDED Carlton  Elise              O'Dea             FINAL_TEAM
#>  8 Round 1    CONCLUDED Carlton  Katie              Loynes            FINAL_TEAM
#>  9 Round 1    CONCLUDED Carlton  Abbie              McKay             FINAL_TEAM
#> 10 Round 1    CONCLUDED Carlton  Tayla              Harris            FINAL_TEAM
#> # … with 284 more rows

Results

You can access AFL match results data from various sources. The most complete is the AFL Tables data, which includes all matches from 1897-current.

results <- fetch_match_results_afltables(1897:2019)
results

#> # A tibble: 15,614 × 16
#>     Game Date       Round Home.Team   Home.Goals Home.Behinds Home.Points
#>    <dbl> <date>     <chr> <chr>            <int>        <int>       <int>
#>  1     1 1897-05-08 R1    Fitzroy              6           13          49
#>  2     2 1897-05-08 R1    Collingwood          5           11          41
#>  3     3 1897-05-08 R1    Geelong              3            6          24
#>  4     4 1897-05-08 R1    Sydney               3            9          27
#>  5     5 1897-05-15 R2    Sydney               6            4          40
#>  6     6 1897-05-15 R2    Essendon             4            6          30
#>  7     7 1897-05-15 R2    St Kilda             3            8          26
#>  8     8 1897-05-15 R2    Melbourne            9           10          64
#>  9     9 1897-05-22 R3    Collingwood          6            5          41
#> 10    10 1897-05-22 R3    Fitzroy              5            9          39
#> # … with 15,604 more rows, and 9 more variables: Away.Team <chr>,
#> #   Away.Goals <int>, Away.Behinds <int>, Away.Points <int>, Venue <chr>,
#> #   Margin <int>, Season <dbl>, Round.Type <chr>, Round.Number <int>

While it is possible to return all historical data, it is usually good practice to only return a small amount of data - such as a single season or round - and keep your own offline database of historical data.

results_new <- fetch_results_afltables(2021)
bind_rows(results, results_new)

#> # A tibble: 15,983 × 16
#>     Game Date       Round Home.Team   Home.Goals Home.Behinds Home.Points
#>    <dbl> <date>     <chr> <chr>            <int>        <int>       <int>
#>  1     1 1897-05-08 R1    Fitzroy              6           13          49
#>  2     2 1897-05-08 R1    Collingwood          5           11          41
#>  3     3 1897-05-08 R1    Geelong              3            6          24
#>  4     4 1897-05-08 R1    Sydney               3            9          27
#>  5     5 1897-05-15 R2    Sydney               6            4          40
#>  6     6 1897-05-15 R2    Essendon             4            6          30
#>  7     7 1897-05-15 R2    St Kilda             3            8          26
#>  8     8 1897-05-15 R2    Melbourne            9           10          64
#>  9     9 1897-05-22 R3    Collingwood          6            5          41
#> 10    10 1897-05-22 R3    Fitzroy              5            9          39
#> # … with 15,973 more rows, and 9 more variables: Away.Team <chr>,
#> #   Away.Goals <int>, Away.Behinds <int>, Away.Points <int>, Venue <chr>,
#> #   Margin <int>, Season <dbl>, Round.Type <chr>, Round.Number <int>
You can get results data from other sources including AFL, Squiggle and Footywire. The default source for fetch_results() is the AFL.com.au website.

results_afl <- fetch_results(2020, round_number = 11)
results_aflw <- fetch_results(2020, comp = "AFLW")
results_squiggle <- fetch_results_squiggle(2019, round_number = 1)
results_footywire <- fetch_results_footywire(1990)

You can get AFLW results by using the comp argument.

fetch_results(2020, comp = "AFLW") %>%
  select(match.name, venue.name, round.name,
         homeTeamScore.matchScore.totalScore,
         awayTeamScore.matchScore.totalScore)

#> # A tibble: 46 × 5
#>    match.name    venue.name     round.name homeTeamScore.mat… awayTeamScore.mat…
#>    <chr>         <chr>          <chr>                   <int>              <int>
#>  1 Richmond Vs … Ikon Park      Round 1                    14                 48
#>  2 GWS Giants V… Blacktown Int… Round 1                     9                  8
#>  3 Melbourne Vs… Casey Fields   Round 1                    22                 20
#>  4 Brisbane Lio… Hickey Park    Round 1                    34                 21
#>  5 Collingwood … Victoria Park  Round 1                    38                 11
#>  6 St Kilda Vs … RSEA Park      Round 1                    14                 39
#>  7 Fremantle Vs… Fremantle Oval Round 1                    44                 28
#>  8 Western Bull… Victoria Univ… Round 2                    12                 32
#>  9 Kangaroos Vs… University of… Round 2                    37                 19
#> 10 Gold Coast S… Metricon Stad… Round 2                    33                 22
#> # … with 36 more rows
…
ladder_afl <- fetch_ladder(2020, round_number = 11)
ladder_aflw <- fetch_ladder(2020, comp = "AFLW")
ladder_squiggle <- fetch_ladder_squiggle(2019, round_number = 1)
ladder_afltables <- fetch_ladder_afltables(1990)

Stats

We can return player statistics for a set of matches. The exact stats that are included varies quite a bit between data sources.

The default is again the AFL.com.au which is fairly comprehensive.

fetch_player_stats(2020, comp = "AFLW")

#> # A tibble: 1,932 × 68
#>    providerId      utcStartTime status compSeason.shor… round.name round.roundNumb…
#>    <chr>           <chr>        <chr>  <chr>            <chr>                 <int>
#>  1 CD_M20202640101 2020-02-07T… CONCL… 2020 AFL Womens  Round 1                   1
#>  2 CD_M20202640101 2020-02-07T… CONCL… 2020 AFL Womens  Round 1                   1
#>  3 CD_M20202640101 2020-02-07T… CONCL… 2020 AFL Womens  Round 1                   1
#>  4 CD_M20202640101 2020-02-07T… CONCL… 2020 AFL Womens  Round 1                   1
#>  5 CD_M20202640101 2020-02-07T… CONCL… 2020 AFL Womens  Round 1                   1
#>  6 CD_M20202640101 2020-02-07T… CONCL… 2020 AFL Womens  Round 1                   1
#>  7 CD_M20202640101 2020-02-07T… CONCL… 2020 AFL Womens  Round 1                   1
#>  8 CD_M20202640101 2020-02-07T… CONCL… 2020 AFL Womens  Round 1                   1
#>  9 CD_M20202640101 2020-02-07T… CONCL… 2020 AFL Womens  Round 1                   1
#> 10 CD_M20202640101 2020-02-07T… CONCL… 2020 AFL Womens  Round 1                   1
#> # … with 1,922 more rows, and 62 more variables: venue.name <chr>,
#> #   home.team.club.name <chr>, away.team.club.name <chr>,
#> #   player.jumperNumber <int>, player.photoURL <chr>,
#> #   player.player.position <chr>, player.player.player.playerId <chr>,
#> #   player.player.player.captain <lgl>,
#> #   player.player.player.playerJumperNumber <int>,
#> #   player.player.player.givenName <chr>, player.player.player.surname <chr>, …

We also have detailed player stats courtesy of Fryzigg.

fetch_player_stats(2019, source = "fryzigg")

#> # A tibble: 9,108 × 81
#>    venue_name match_id match_home_team match_away_team match_date
#>    <chr>         <int> <chr>           <chr>           <chr>     
#>  1 MCG           15408 Carlton         Richmond        2019-03-21
#>  2 MCG           15408 Carlton         Richmond        2019-03-21
#>  3 MCG           15408 Carlton         Richmond        2019-03-21
#>  4 MCG           15408 Carlton         Richmond        2019-03-21
#>  5 MCG           15408 Carlton         Richmond        2019-03-21
#>  6 MCG           15408 Carlton         Richmond        2019-03-21
#>  7 MCG           15408 Carlton         Richmond        2019-03-21
#>  8 MCG           15408 Carlton         Richmond        2019-03-21
#>  9 MCG           15408 Carlton         Richmond        2019-03-21
#> 10 MCG           15408 Carlton         Richmond        2019-03-21
#> # … with 9,098 more rows, and 76 more variables: match_local_time <chr>,
#> #   match_attendance <int>, match_round <chr>, match_home_team_goals <int>,
#> #   match_home_team_behinds <int>, match_home_team_score <int>,
#> #   match_away_team_goals <int>, match_away_team_behinds <int>,
#> #   match_away_team_score <int>, match_margin <int>, match_winner <chr>,
#> #   match_weather_temp_c <int>, match_weather_type <chr>, player_id <int>,
#> #   player_first_name <chr>, player_last_name <chr>, player_height_cm <int>, …
…
