…
## Examples

### Basic Usage

All of the functions behave the same. The following are some examples
using the `fetch_fixture` function but can equally be applied to any of
the family of `fetch_` functions.

``` r
fetch_fixture(2021)
```

    #> # A tibble: 207 × 55
    #>       id providerId      utcStartTime status compSeason.id compSeason.providerId
    #>    <int> <chr>           <chr>        <chr>          <int> <chr>                
    #>  1  2991 CD_M20210140101 2021-03-18T… CONCL…            34 CD_S2021014          
    #>  2  2986 CD_M20210140102 2021-03-19T… CONCL…            34 CD_S2021014          
    #>  3  2992 CD_M20210140103 2021-03-20T… CONCL…            34 CD_S2021014          
    #>  4  2993 CD_M20210140104 2021-03-20T… CONCL…            34 CD_S2021014          
    #>  5  2994 CD_M20210140105 2021-03-20T… CONCL…            34 CD_S2021014          
    #>  6  2987 CD_M20210140106 2021-03-20T… CONCL…            34 CD_S2021014          
    #>  7  2990 CD_M20210140107 2021-03-21T… CONCL…            34 CD_S2021014          
    #>  8  2989 CD_M20210140108 2021-03-21T… CONCL…            34 CD_S2021014          
    #>  9  2988 CD_M20210140109 2021-03-21T… CONCL…            34 CD_S2021014          
    #> 10  2999 CD_M20210140201 2021-03-25T… CONCL…            34 CD_S2021014          
    #> # ℹ 197 more rows
    #> # ℹ 49 more variables: compSeason.name <chr>, compSeason.shortName <chr>,
    #> #   compSeason.currentRoundNumber <int>, round.id <int>,
    #> #   round.providerId <chr>, round.abbreviation <chr>, round.name <chr>,
    #> #   round.roundNumber <int>, round.byes <list>, home.team.id <int>,
    #> #   home.team.providerId <chr>, home.team.name <chr>,
    #> #   home.team.abbreviation <chr>, home.team.nickname <chr>, …
…
We could also return the AFLW fixture instead.

``` r
fetch_fixture(season = 2021, comp = "AFLW") %>%
  select(
    compSeason.name, round.name,
    home.team.name, away.team.name,
    venue.name
  )
```

    #> # A tibble: 68 × 5
    #>    compSeason.name           round.name home.team.name away.team.name venue.name
    #>    <chr>                     <chr>      <chr>          <chr>          <chr>     
    #>  1 2021 NAB AFLW Competition Round 1    Carlton        Collingwood    Ikon Park 
    #>  2 2021 NAB AFLW Competition Round 1    St Kilda       Western Bulld… RSEA Park 
    #>  3 2021 NAB AFLW Competition Round 1    Gold Coast Su… Melbourne      Metricon …
    #>  4 2021 NAB AFLW Competition Round 1    West Coast Ea… Adelaide Crows Mineral R…
    #>  5 2021 NAB AFLW Competition Round 1    Geelong Cats   Kangaroos      GMHBA Sta…
    #>  6 2021 NAB AFLW Competition Round 1    Richmond       Brisbane Lions Swinburne…
    #>  7 2021 NAB AFLW Competition Round 1    Fremantle      GWS Giants     Fremantle…
    #>  8 2021 NAB AFLW Competition Round 2    Western Bulld… Carlton        Victoria …
    #>  9 2021 NAB AFLW Competition Round 2    Collingwood    Geelong Cats   Victoria …
    #> 10 2021 NAB AFLW Competition Round 2    Melbourne      Richmond       Casey Fie…
    #> # ℹ 58 more rows

Lastly - we can choose a different source. Note that the field names and
even the names of the teams and/or venues will be different for
difference sources.

``` r
fetch_fixture(2021, round_number = 1, source = "squiggle")
```

    #> # A tibble: 207 × 24
    #>    is_grand_final date     hscore ateamid agoals ascore hgoals hteamid localtime
    #>             <int> <chr>     <int>   <int>  <int>  <int>  <int>   <int> <chr>    
    #>  1              0 2021-03…    103       7     13     91     15       1 2021-03-…
    #>  2              0 2021-03…     94      16     19    125     14       2 2021-03-…
    #>  3              0 2021-03…     53      18     10     69      7       4 2021-03-…
    #>  4              0 2021-03…     91      10     14     92     13       5 2021-03-…
    #>  5              0 2021-03…     78      15     13     86     11       9 2021-03-…
    #>  6              0 2021-03…     80       6      8     58     11      11 2021-03-…
    #>  7              0 2021-03…     65      13     17    117      9      12 2021-03-…
    #>  8              0 2021-03…    105       3     11     80     15      14 2021-03-…
    #>  9              0 2021-03…     83       8      8     58     12      17 2021-03-…
    #> 10              0 2021-03…     85       4     16    106     13       3 2021-03-…
    #> # ℹ 197 more rows
    #> # ℹ 15 more variables: abehinds <int>, tz <chr>, updated <chr>, ateam <chr>,
    #> #   complete <int>, winnerteamid <int>, year <int>, hbehinds <int>,
    #> #   venue <chr>, hteam <chr>, is_final <int>, id <int>, roundname <chr>,
    #> #   round <int>, winner <chr>
…
