Fetching Player Details • fitzRoy
…
      Fetching Player Details

      Source: vignettes/player-details.Rmd
      player-details.Rmd

A special case of the fetch_ family of functions is the fetch_player_details_ set of functions. You can read the general explanation of how to use the main fetch functions on the Vignette. The player details functions accepts slightly different arguments.

Basic Usage

You can use fetch_player_details to return a list of player details for a given club and source. The source will determine exactly what details are returned. The default is the AFL.com.au website.

fetch_player_details("Hawthorn")

#> # A tibble: 42 × 17
#>    firstName surname       id team     season jumperNumber position   providerId
#>    <chr>     <chr>      <int> <chr>     <dbl>        <int> <chr>      <chr>     
#>  1 Lachlan   Bramble     4313 Hawthorn   2022           16 MEDIUM_DE… CD_I10008…
#>  2 Mitch     Lewis       1333 Hawthorn   2022            2 KEY_FORWA… CD_I10008…
#>  3 Max       Lynch       1319 Hawthorn   2022           18 RUCK       CD_I10009…
#>  4 Harry     Morrison    1341 Hawthorn   2022            1 MIDFIELDE… CD_I10009…
#>  5 Ned       Reeves      1822 Hawthorn   2022           37 RUCK       CD_I10010…
#>  6 James     Worpel      1713 Hawthorn   2022            5 MIDFIELDER CD_I10022…
#>  7 Emerson   Jeka        3049 Hawthorn   2022           39 KEY_FORWA… CD_I10051…
#>  8 Jacob     Koschitzke  1819 Hawthorn   2022           23 KEY_FORWA… CD_I10060…
#>  9 Dylan     Moore       1595 Hawthorn   2022           13 MEDIUM_FO… CD_I10063…
#> 10 Conor     Nash        1302 Hawthorn   2022           11 MIDFIELDE… CD_I10071…
#> # … with 32 more rows, and 9 more variables: dateOfBirth <chr>,
#> #   draftYear <chr>, heightInCm <int>, weightInKg <int>, recruitedFrom <chr>,
#> #   debutYear <chr>, draftType <chr>, draftPosition <chr>, data_accessed <date>
…
The AFLTables.com source will return all players who have played for the specified team over time.

fetch_player_details("Hawthorn", source = "afltables")

#> # A tibble: 948 × 15
#>    Player  Team     Cap `#`   HT    WT    Games  Wins Draws Losses Goals Seasons
#>    <chr>   <chr>  <dbl> <chr> <chr> <chr> <dbl> <dbl> <dbl>  <dbl> <dbl> <chr>  
#>  1 Paddy … Hawth…     1 6     183cm "82k…    31     6     1     24    13 1925-1…
#>  2 Dave E… Hawth…     2 23    175cm "70k…     3     0     0      3     5 1925   
#>  3 Fred F… Hawth…     3 11    183cm "84k…    37     6     1     30    10 1925-1…
#>  4 Jack G… Hawth…     4 14    171cm ""       40     7     0     33     9 1925-1…
#>  5 Gil He… Hawth…     5 17    185cm "84k…    17     2     0     15     9 1925, …
#>  6 Jim Ja… Hawth…     6 1     174cm "73k…    22     4     1     17     1 1925-1…
#>  7 Jim Mc… Hawth…     7 8     175cm "73k…    46     6     1     39     7 1925-1…
#>  8 Stan M… Hawth…     8 3     173cm "75k…    17     3     0     14    NA 1925   
#>  9 Cyril … Hawth…     9 2     180cm "70k…    18     2     1     15     1 1925-1…
#> 10 Bert O… Hawth…    10 21    182cm "80k…    12     2     0     10     6 1925   
#> # … with 938 more rows, and 3 more variables: Debut <chr>, Last <chr>,
#> #   date_accessed <date>

The Footywire.com source allows you to specify just the current list of players, which is fairly quick, or all players over time which can be a little slow.

fetch_player_details("Richmond", source = "footywire", current = TRUE)

#> # A tibble: 43 × 11
#>    No    surname  first_name Games Age    `Date of Birth` Height Weight Origin  
#>    <chr> <chr>    <chr>      <chr> <chr>  <chr>           <chr>  <chr>  <chr>   
#>  1 16    Aarts    Jake       34    27yr … 8 Dec 1994      177cm  76kg   Richmon…
#>  2 7     Baker    Liam       64    23yr … 27 Jan 1998     173cm  72kg   Subiaco 
#>  3 21    Balta    Noah       44    22yr … 23 Oct 1999     194cm  102kg  Calder …
#>  4 41    Banks    Sam        0     18yr … 2 Apr 2003      186cm  71kg   Tasmani…
#>  5 29    Bolton   Shai       67    23yr … 8 Dec 1998      175cm  77kg   South F…
#>  6 35    Broad    Nathan     84    28yr … 15 Apr 1993     192cm  89kg   Swan Di…
#>  7 30    Brown    Tom        0     18yr … 30 Jul 2003     186cm  77kg   Murray …
#>  8 22    Caddy    Josh       171   29yr … 28 Sep 1992     186cm  87kg   Norther…
#>  9 11    Castagna Jason      117   25yr … 12 Jul 1996     182cm  82kg   Norther…
#> 10 42    Clarke   Judson     0     18yr … 17 Oct 2003     179cm  69kg   Dandeno…
#> # … with 33 more rows, and 2 more variables: Position_1 <chr>, Position_2 <chr>
…
