…
Optional arguments can then be supplied based on the query.

For example, `games` takes the following optional arguments. \* `year` -
Year \* `round` - Round \* `game` - Game ID \* `complete` - Percent of
game complete

These can be supplied as named arguments after the query. For example,
to return games from just 2020, we would use the following.

``` r
fetch_squiggle_data(query = "games", year = 2020)
```

    #> # A tibble: 162 × 24
    #>    ascore hteamid hgoals localtime    is_grand_final date  hscore ateamid agoals
    #>     <int>   <int>  <int> <chr>                 <int> <chr>  <int>   <int>  <int>
    #>  1     74       1     11 2020-03-21 …              0 2020…     71      16     11
    #>  2     57       5      9 2020-03-21 …              0 2020…     63       6      8
    #>  3     76       8      4 2020-03-21 …              0 2020…     29      13     10
    #>  4     73       9     17 2020-03-21 …              0 2020…    105       7     11
    #>  5     62      10     14 2020-03-22 …              0 2020…     90       2      9
    #>  6     54      12      8 2020-03-22 …              0 2020…     56      15      7
    #>  7     81      14     16 2020-03-19 …              0 2020…    105       3     12
    #>  8     51      17     12 2020-03-22 …              0 2020…     78      11      7
    #>  9     86      18      5 2020-03-20 …              0 2020…     34       4     13
    #> 10     69       2     12 2020-06-13 …              0 2020…     81       6     10
    #> # ℹ 152 more rows
    #> # ℹ 15 more variables: hbehinds <int>, venue <chr>, hteam <chr>,
    #> #   is_final <int>, id <int>, roundname <chr>, round <int>, winner <chr>,
    #> #   abehinds <int>, ateam <chr>, tz <chr>, updated <chr>, complete <int>,
    #> #   winnerteamid <int>, year <int>
…
### Games

Fetch info about one or more games.

``` r
fetch_squiggle_data(query = "games", year = 2020)
```

    #> # A tibble: 162 × 24
    #>    ascore hteamid hgoals localtime    is_grand_final date  hscore ateamid agoals
    #>     <int>   <int>  <int> <chr>                 <int> <chr>  <int>   <int>  <int>
    #>  1     74       1     11 2020-03-21 …              0 2020…     71      16     11
    #>  2     57       5      9 2020-03-21 …              0 2020…     63       6      8
    #>  3     76       8      4 2020-03-21 …              0 2020…     29      13     10
    #>  4     73       9     17 2020-03-21 …              0 2020…    105       7     11
    #>  5     62      10     14 2020-03-22 …              0 2020…     90       2      9
    #>  6     54      12      8 2020-03-22 …              0 2020…     56      15      7
    #>  7     81      14     16 2020-03-19 …              0 2020…    105       3     12
    #>  8     51      17     12 2020-03-22 …              0 2020…     78      11      7
    #>  9     86      18      5 2020-03-20 …              0 2020…     34       4     13
    #> 10     69       2     12 2020-06-13 …              0 2020…     81       6     10
    #> # ℹ 152 more rows
    #> # ℹ 15 more variables: hbehinds <int>, venue <chr>, hteam <chr>,
    #> #   is_final <int>, id <int>, roundname <chr>, round <int>, winner <chr>,
    #> #   abehinds <int>, ateam <chr>, tz <chr>, updated <chr>, complete <int>,
    #> #   winnerteamid <int>, year <int>

### Sources

Fetch info about one or more computer models.

``` r
# You can get the sources
fetch_squiggle_data("sources")
```

    #> # A tibble: 25 × 4
    #>    url                                   icon                           id name 
    #>    <chr>                                 <chr>                       <int> <chr>
    #>  1 "https://live.squiggle.com.au/"       "/wp-content/uploads/2017/…     1 Squi…
    #>  2 "https://thearcfooty.com/"            "/wp-content/themes/squigg…     2 The …
    #>  3 "http://figuringfooty.com/"           "/wp-content/themes/squigg…     3 Figu…
    #>  4 "http://www.matterofstats.com/"       "/wp-content/themes/squigg…     4 Matt…
    #>  5 ""                                    ""                              5 Punt…
    #>  6 "https://footymaths.blogspot.com"     "/wp-content/themes/squigg…     6 FMI  
    #>  7 "http://plussixoneblog.com/"          "/wp-content/themes/squigg…     7 Plus…
    #>  8 "/introducing-s10/"                   ""                              8 Aggr…
    #>  9 "http://graftratings.com/afl/"        "/wp-content/themes/squigg…     9 Graft
    #> 10 "https://stattraction.wordpress.com/" "/wp-content/themes/squigg…    10 Stat…
    #> # ℹ 15 more rows

### Tips

Fetch info about one or more tips made by computer models.

``` r
# Get all tips
fetch_squiggle_data("tips")
```

    #> # A tibble: 15,682 × 21
    #>    hmargin  year gameid ateamid source correct   err    bits ateam updated date 
    #>      <dbl> <int>  <int>   <int> <chr>    <int> <dbl>   <dbl> <chr> <chr>   <chr>
    #>  1   -1     2017      1      14 Squig…       1 42     0      Rich… 2017-0… 2017…
    #>  2   NA     2017      1      14 Figur…       1 NA     0.214  Rich… 2017-0… 2017…
    #>  3    5.39  2017      1      14 Matte…       0 48.4  -0.208  Rich… 2017-0… 2017…
    #>  4  -10.3   2017      2      18 Matte…       1  3.69  0.326  West… 2017-0… 2017…
    #>  5  -17     2017      2      18 Squig…       1  3     0.310  West… 2017-0… 2017…
    #>  6    3     2017      8       9 Squig…       1 53     0      Grea… 2017-0… 2017…
    #>  7   -8     2017      1      14 The A…       1 35     0.234  Rich… 2017-0… 2017…
    #>  8  -13     2017      2      18 The A…       1  1     0.358  West… 2017-0… 2017…
    #>  9    2     2017      4      11 The A…       0 32    -0.0862 Melb… 2017-0… 2017…
    #> 10   29     2017      3      13 The A…       0 57    -1.28   Port… 2017-0… 2017…
    #> # ℹ 15,672 more rows
    #> # ℹ 10 more variables: hteamid <int>, round <int>, hconfidence <dbl>,
    #> #   margin <dbl>, tipteamid <int>, sourceid <int>, venue <chr>, hteam <chr>,
    #> #   confidence <dbl>, tip <chr>

We can just look at one particular round.

``` r
# Get` just tips from round 1, 2018
fetch_squiggle_data("tips", round = 1, year = 2018)
```

    #> # A tibble: 126 × 21
    #>    hmargin  year gameid ateamid source correct   err    bits ateam updated date 
    #>      <dbl> <int>  <int>   <int> <chr>    <int> <dbl>   <dbl> <chr> <chr>   <chr>
    #>  1    NA    2018    372       3 Punte…       1  NA    0.675  Carl… 2018-0… 2018…
    #>  2    NA    2018    373       1 Punte…       1  NA    0.0588 Adel… 2018-0… 2018…
    #>  3    NA    2018    374       2 Punte…       1  NA    0.521  Bris… 2018-0… 2018…
    #>  4    NA    2018    375       6 Punte…       1  NA    0.666  Frem… 2018-0… 2018…
    #>  5    NA    2018    376      12 Punte…       0  NA   -0.0151 Nort… 2018-0… 2018…
    #>  6    NA    2018    377       4 Punte…       1  NA    0.122  Coll… 2018-0… 2018…
    #>  7    NA    2018    378      18 Punte…       1  NA    0.530  West… 2018-0… 2018…
    #>  8    NA    2018    379       7 Punte…       0  NA   -0.198  Geel… 2018-0… 2018…
    #>  9    NA    2018    380      16 Punte…       1  NA    0.486  Sydn… 2018-0… 2018…
    #> 10    35.2  2018    372       3 Aggre…       1   9.2  0.674  Carl… 2018-0… 2018…
    #> # ℹ 116 more rows
    #> # ℹ 10 more variables: hteamid <int>, round <int>, hconfidence <dbl>,
    #> #   margin <dbl>, tipteamid <int>, sourceid <int>, venue <chr>, hteam <chr>,
    #> #   confidence <dbl>, tip <chr>
…
