Using the Squiggle API • fitzRoy
…
virtual - Info about Virtually Season 2020

pav - Info about Player Approximate Value from HPN Footy

Optional Arguments

Optional arguments can then be supplied based on the query.

For example, games takes the following optional arguments. * year - Year * round - Round * game - Game ID * complete - Percent of game complete

These can be supplied as named arguments after the query. For example, to return games from just 2020, we would use the following.

fetch_squiggle_data(query = "games", year = 2020)

#> # A tibble: 162 × 24
#>    ateamid winner hteamid is_grand_final roundname venue round complete abehinds
#>      <int> <chr>    <int>          <int> <chr>     <chr> <int>    <int>    <int>
#>  1      16 Sydney       1              0 Round 1   Adel…     1      100        8
#>  2       6 Essen…       5              0 Round 1   Dock…     1      100        9
#>  3      13 Port …       8              0 Round 1   Carr…     1      100       16
#>  4       7 Great…       9              0 Round 1   Sydn…     1      100        7
#>  5       2 Hawth…      10              0 Round 1   M.C.…     1      100        8
#>  6      15 North…      12              0 Round 1   Dock…     1      100       12
#>  7       3 Richm…      14              0 Round 1   M.C.…     1      100        9
#>  8      11 West …      17              0 Round 1   Pert…     1      100        9
#>  9       4 Colli…      18              0 Round 1   Dock…     1      100        8
#> 10       6 Brisb…       2              0 Round 2   Gabba     2      100        9
#> # … with 152 more rows, and 15 more variables: localtime <chr>, hbehinds <int>,
#> #   date <chr>, is_final <int>, hgoals <int>, year <int>, hscore <int>,
#> #   hteam <chr>, ascore <int>, tz <chr>, ateam <chr>, agoals <int>,
#> #   updated <chr>, winnerteamid <int>, id <int>
…
Games

Fetch info about one or more games.

fetch_squiggle_data(query = "games", year = 2020)

#> # A tibble: 162 × 24
#>    ateamid winner hteamid is_grand_final roundname venue round complete abehinds
#>      <int> <chr>    <int>          <int> <chr>     <chr> <int>    <int>    <int>
#>  1      16 Sydney       1              0 Round 1   Adel…     1      100        8
#>  2       6 Essen…       5              0 Round 1   Dock…     1      100        9
#>  3      13 Port …       8              0 Round 1   Carr…     1      100       16
#>  4       7 Great…       9              0 Round 1   Sydn…     1      100        7
#>  5       2 Hawth…      10              0 Round 1   M.C.…     1      100        8
#>  6      15 North…      12              0 Round 1   Dock…     1      100       12
#>  7       3 Richm…      14              0 Round 1   M.C.…     1      100        9
#>  8      11 West …      17              0 Round 1   Pert…     1      100        9
#>  9       4 Colli…      18              0 Round 1   Dock…     1      100        8
#> 10       6 Brisb…       2              0 Round 2   Gabba     2      100        9
#> # … with 152 more rows, and 15 more variables: localtime <chr>, hbehinds <int>,
#> #   date <chr>, is_final <int>, hgoals <int>, year <int>, hscore <int>,
#> #   hteam <chr>, ascore <int>, tz <chr>, ateam <chr>, agoals <int>,
#> #   updated <chr>, winnerteamid <int>, id <int>

Sources

Fetch info about one or more computer models.

# You can get the sources
fetch_squiggle_data("sources")

#> # A tibble: 25 × 4
#>       id url                                   name            icon             
#>    <int> <chr>                                 <chr>           <chr>            
#>  1     1 "https://live.squiggle.com.au/"       Squiggle        "/wp-content/upl…
#>  2     2 "https://thearcfooty.com/"            The Arc         "/wp-content/the…
#>  3     3 "http://figuringfooty.com/"           Figuring Footy  "/wp-content/the…
#>  4     4 "http://www.matterofstats.com/"       Matter of Stats "/wp-content/the…
#>  5     5 ""                                    Punters         ""               
#>  6     6 "https://footymaths.blogspot.com"     FMI             "/wp-content/the…
#>  7     7 "http://plussixoneblog.com/"          PlusSixOne      "/wp-content/the…
#>  8     8 "/introducing-s10/"                   Aggregate       ""               
#>  9     9 "http://graftratings.com/afl/"        Graft           "/wp-content/the…
#> 10    10 "https://stattraction.wordpress.com/" Stattraction    "/wp-content/the…
#> # … with 15 more rows

Tips

Fetch info about one or more tips made by computer models.

# Get all tips
fetch_squiggle_data("tips")

#> # A tibble: 14,848 × 21
#>     year hmargin    bits   err ateamid hteam       tipteamid ateam  tip   source
#>    <int>   <dbl>   <dbl> <dbl>   <int> <chr>           <int> <chr>  <chr> <chr> 
#>  1  2017   -1     0      42         14 Carlton            14 Richm… Rich… Squig…
#>  2  2017   NA     0.214  NA         14 Carlton            14 Richm… Rich… Figur…
#>  3  2017    5.39 -0.208  48.4       14 Carlton             3 Richm… Carl… Matte…
#>  4  2017  -10.3   0.326   3.69      18 Collingwood        18 Weste… West… Matte…
#>  5  2017  -17     0.310   3         18 Collingwood        18 Weste… West… Squig…
#>  6  2017    3     0      53          9 Adelaide            1 Great… Adel… Squig…
#>  7  2017   -8     0.234  35         14 Carlton            14 Richm… Rich… The A…
#>  8  2017  -13     0.358   1         18 Collingwood        18 Weste… West… The A…
#>  9  2017    2    -0.0862 32         11 St Kilda           15 Melbo… St K… The A…
#> 10  2017   29    -1.28   57         13 Sydney             16 Port … Sydn… The A…
#> # … with 14,838 more rows, and 11 more variables: correct <int>, hteamid <int>,
#> #   updated <chr>, sourceid <int>, round <int>, venue <chr>, confidence <dbl>,
#> #   gameid <int>, hconfidence <dbl>, date <chr>, margin <dbl>

We can just look at one particular round.

# Get` just tips from round 1, 2018
fetch_squiggle_data("tips", round = 1, year = 2018)

#> # A tibble: 126 × 21
#>     year hmargin    bits   err ateamid hteam    tipteamid ateam   tip     source
#>    <int>   <dbl>   <dbl> <dbl>   <int> <chr>        <int> <chr>   <chr>   <chr> 
#>  1  2018    NA    0.675   NA         3 Richmond        14 Carlton Richmo… Punte…
#>  2  2018    NA    0.0588  NA         1 Essendon         5 Adelai… Essend… Punte…
#>  3  2018    NA    0.521   NA         2 St Kilda        15 Brisba… St Kil… Punte…
#>  4  2018    NA    0.666   NA         6 Port Ad…        13 Freman… Port A… Punte…
#>  5  2018    NA   -0.0151  NA        12 Gold Co…        12 North … North … Punte…
#>  6  2018    NA    0.122   NA         4 Hawthorn        10 Collin… Hawtho… Punte…
#>  7  2018    NA    0.530   NA        18 Greater…         9 Wester… Greate… Punte…
#>  8  2018    NA   -0.198   NA         7 Melbour…        11 Geelong Melbou… Punte…
#>  9  2018    NA    0.486   NA        16 West Co…        16 Sydney  Sydney  Punte…
#> 10  2018    35.2  0.674    9.2       3 Richmond        14 Carlton Richmo… Aggre…
#> # … with 116 more rows, and 11 more variables: correct <int>, hteamid <int>,
#> #   updated <chr>, sourceid <int>, round <int>, venue <chr>, confidence <dbl>,
#> #   gameid <int>, hconfidence <dbl>, date <chr>, margin <dbl>
…
