AFL Womens Example • fitzRoy
…
The package provides easy access to AFLW data from the AFL.com.au website. This can be accessed via the normal fetch_ functions in the same way you would access Men’s data.

This vignette talks through the main data sources. To fully understand how the fetch_ functions work - please read the Main Fetch Functions vignette.

Fixture

Firstly, we can return the fixture for a season or particular round.

fetch_fixture(season = 2021, comp = "AFLW") %>%
  select(compSeason.name, round.name, 
         home.team.name, away.team.name, 
         venue.name)

#> # A tibble: 63 x 5
#>    compSeason.name    round.name home.team.name  away.team.name  venue.name     
#>    <chr>              <chr>      <chr>           <chr>           <chr>          
#>  1 2021 NAB AFLW Com… Round 1    Carlton         Collingwood     Ikon Park      
#>  2 2021 NAB AFLW Com… Round 1    St Kilda        Western Bulldo… RSEA Park      
#>  3 2021 NAB AFLW Com… Round 1    Gold Coast Suns Melbourne       Metricon Stadi…
#>  4 2021 NAB AFLW Com… Round 1    West Coast Eag… Adelaide Crows  Mineral Resour…
#>  5 2021 NAB AFLW Com… Round 1    Geelong Cats    Kangaroos       GMHBA Stadium  
#>  6 2021 NAB AFLW Com… Round 1    Richmond        Brisbane Lions  Swinburne Cent…
#>  7 2021 NAB AFLW Com… Round 1    Fremantle       GWS Giants      Fremantle Oval 
#>  8 2021 NAB AFLW Com… Round 2    Western Bulldo… Carlton         Victoria Unive…
#>  9 2021 NAB AFLW Com… Round 2    Collingwood     Geelong Cats    Victoria Park  
#> 10 2021 NAB AFLW Com… Round 2    Melbourne       Richmond        Casey Fields   
#> # … with 53 more rows

Lineup

We can get the lineup for a given set of matches in a particular round.

fetch_lineup(2021, round_number = 1, comp = "AFLW") %>%
  select(round.name, status, teamName, 
         player.playerName.givenName,
         player.playerName.surname, teamStatus)

#> # A tibble: 294 x 6
#>    round.name status  teamName player.playerName.… player.playerName… teamStatus
#>    <chr>      <chr>   <chr>    <chr>               <chr>              <chr>     
#>  1 Round 1    CONCLU… Carlton  Brooke              Vernon             FINAL_TEAM
#>  2 Round 1    CONCLU… Carlton  Natalie             Plane              FINAL_TEAM
#>  3 Round 1    CONCLU… Carlton  Vaomua              Laloifi            FINAL_TEAM
#>  4 Round 1    CONCLU… Carlton  Charlotte           Wilson             FINAL_TEAM
#>  5 Round 1    CONCLU… Carlton  Kerryn              Harrington         FINAL_TEAM
#>  6 Round 1    CONCLU… Carlton  Lauren              Brazzale           FINAL_TEAM
#>  7 Round 1    CONCLU… Carlton  Elise               O'Dea              FINAL_TEAM
#>  8 Round 1    CONCLU… Carlton  Katie               Loynes             FINAL_TEAM
#>  9 Round 1    CONCLU… Carlton  Abbie               McKay              FINAL_TEAM
#> 10 Round 1    CONCLU… Carlton  Tayla               Harris             FINAL_TEAM
#> # … with 284 more rows
…
Stats

Lastly - we have basic player stats. This will return player level statistics such as possessions, time on ground, fantasy points and a myriad of other statistics.

fetch_player_stats(2020, round_number = 1, comp = "AFLW") %>%
  select(player.player.player.givenName:clearances.totalClearances)

#> # A tibble: 294 x 45
#>    player.player.pl… player.player.pl… teamId gamesPlayed timeOnGroundPer… goals
#>    <chr>             <chr>             <chr>  <lgl>                  <dbl> <dbl>
#>  1 Gabrielle         Seymour           CD_T8… NA                        93     0
#>  2 Kodi              Jacques           CD_T8… NA                        74     0
#>  3 Sabrina           Frederick         CD_T8… NA                        94     1
#>  4 Hannah            Burchell          CD_T8… NA                        60     0
#>  5 Tayla             Stahl             CD_T8… NA                        74     0
#>  6 Katie             Brennan           CD_T8… NA                        94     0
#>  7 Madeline          Brancatisano      CD_T8… NA                        67     0
#>  8 Laura             Bailey            CD_T8… NA                        70     0
#>  9 Monique           Conti             CD_T8… NA                        85     0
#> 10 Christina         Bernardi          CD_T8… NA                        70     0
#> # … with 284 more rows, and 39 more variables: behinds <dbl>, superGoals <lgl>,
#> #   kicks <dbl>, handballs <dbl>, disposals <dbl>, marks <dbl>, bounces <dbl>,
#> #   tackles <dbl>, contestedPossessions <dbl>, uncontestedPossessions <dbl>,
#> #   totalPossessions <dbl>, inside50s <dbl>, marksInside50 <dbl>,
#> #   contestedMarks <dbl>, hitouts <dbl>, onePercenters <dbl>,
#> #   disposalEfficiency <dbl>, clangers <dbl>, freesFor <dbl>,
#> #   freesAgainst <dbl>, dreamTeamPoints <dbl>, rebound50s <dbl>,
#> #   goalAssists <dbl>, goalAccuracy <dbl>, ratingPoints <lgl>, ranking <lgl>,
#> #   lastUpdated <chr>, turnovers <dbl>, intercepts <dbl>,
…
