…
``` r
fetch_fixture(season = 2021, comp = "AFLW") %>%
  select(
    compSeason.name, round.name,
    home.team.name, away.team.name,
    venue.name
  )
```

    #> # A tibble: 68 × 5
    #>    compSeason.name           round.name home.team.name away.team.name venue.name
    #>    <chr>                     <chr>      <chr>          <chr>          <chr>     
    #>  1 2021 NAB AFLW Competition Round 1    Carlton        Collingwood    Ikon Park 
    #>  2 2021 NAB AFLW Competition Round 1    St Kilda       Western Bulld… RSEA Park 
    #>  3 2021 NAB AFLW Competition Round 1    Gold Coast Su… Melbourne      Metricon …
    #>  4 2021 NAB AFLW Competition Round 1    West Coast Ea… Adelaide Crows Mineral R…
    #>  5 2021 NAB AFLW Competition Round 1    Geelong Cats   Kangaroos      GMHBA Sta…
    #>  6 2021 NAB AFLW Competition Round 1    Richmond       Brisbane Lions Swinburne…
    #>  7 2021 NAB AFLW Competition Round 1    Fremantle      GWS Giants     Fremantle…
    #>  8 2021 NAB AFLW Competition Round 2    Western Bulld… Carlton        Victoria …
    #>  9 2021 NAB AFLW Competition Round 2    Collingwood    Geelong Cats   Victoria …
    #> 10 2021 NAB AFLW Competition Round 2    Melbourne      Richmond       Casey Fie…
    #> # ℹ 58 more rows

## Lineup

We can get the lineup for a given set of matches in a particular round.

``` r
fetch_lineup(2021, round_number = 1, comp = "AFLW") %>%
  select(
    round.name, status, teamName,
    player.playerName.givenName,
    player.playerName.surname, teamStatus
  )
```

    #> # A tibble: 294 × 6
    #>    round.name status    teamName player.playerName.give…¹ player.playerName.su…²
    #>    <chr>      <chr>     <chr>    <chr>                    <chr>                 
    #>  1 Round 1    CONCLUDED Carlton  Brooke                   Vernon                
    #>  2 Round 1    CONCLUDED Carlton  Natalie                  Plane                 
    #>  3 Round 1    CONCLUDED Carlton  Vaomua                   Laloifi               
    #>  4 Round 1    CONCLUDED Carlton  Charlotte                Wilson                
    #>  5 Round 1    CONCLUDED Carlton  Kerryn                   Harrington            
    #>  6 Round 1    CONCLUDED Carlton  Lauren                   Brazzale              
    #>  7 Round 1    CONCLUDED Carlton  Elise                    O'Dea                 
    #>  8 Round 1    CONCLUDED Carlton  Katie                    Loynes                
    #>  9 Round 1    CONCLUDED Carlton  Abbie                    McKay                 
    #> 10 Round 1    CONCLUDED Carlton  Tayla                    Harris                
    #> # ℹ 284 more rows
    #> # ℹ abbreviated names: ¹​player.playerName.givenName, ²​player.playerName.surname
    #> # ℹ 1 more variable: teamStatus <chr>
…
## Stats

Lastly - we have basic player stats. This will return player level
statistics such as possessions, time on ground, fantasy points and a
myriad of other statistics.

``` r
fetch_player_stats(2020, round_number = 1, comp = "AFLW") %>%
  select(player.player.player.givenName:clearances.totalClearances)
```

    #> # A tibble: 294 × 46
    #>    player.player.player.givenName player.player.player.surn…¹ teamId gamesPlayed
    #>    <chr>                          <chr>                       <chr>  <lgl>      
    #>  1 Gabrielle                      Seymour                     CD_T8… NA         
    #>  2 Kodi                           Jacques                     CD_T8… NA         
    #>  3 Sabrina                        Frederick                   CD_T8… NA         
    #>  4 Hannah                         Burchell                    CD_T8… NA         
    #>  5 Tayla                          Stahl                       CD_T8… NA         
    #>  6 Katie                          Brennan                     CD_T8… NA         
    #>  7 Madeline                       Brancatisano                CD_T8… NA         
    #>  8 Laura                          Bailey                      CD_T8… NA         
    #>  9 Monique                        Conti                       CD_T8… NA         
    #> 10 Christina                      Bernardi                    CD_T8… NA         
    #> # ℹ 284 more rows
    #> # ℹ abbreviated name: ¹​player.player.player.surname
    #> # ℹ 42 more variables: timeOnGroundPercentage <dbl>, goals <dbl>,
    #> #   behinds <dbl>, superGoals <lgl>, kicks <dbl>, handballs <dbl>,
    #> #   disposals <dbl>, marks <dbl>, bounces <dbl>, tackles <dbl>,
    #> #   contestedPossessions <dbl>, uncontestedPossessions <dbl>,
    #> #   totalPossessions <dbl>, inside50s <dbl>, marksInside50 <dbl>, …
…
